%!PS-Adobe-3.0
/Xpos    { 300 } def
/Ypos    { 500 } def
/Heading { 0   } def
/Arg     { 0   } def
/Right   {
Heading exch add Trueheading
/Heading exch def
} def
/Left {
Heading exch sub Trueheading
/Heading exch def
} def
/Trueheading {
360 mod dup
0 lt { 360 add } if
} def
/Forward {
dup  Heading sin mul
exch Heading cos mul
2 copy Newposition
rlineto
} def
/Newposition {
Heading 180 gt Heading 360 lt
and { neg } if exch
Heading  90 gt Heading 270 lt
and { neg } if exch
Ypos add /Ypos exch def
Xpos add /Xpos exch def
} def
/RHILBERT { 
1 dict begin
/LEVEL exch def
LEVEL
0
ge
{
90
Right
LEVEL
1
sub
LHILBERT
4
Forward
90
Left
LEVEL
1
sub
RHILBERT
4
Forward
LEVEL
1
sub
RHILBERT
90
Left
4
Forward
LEVEL
1
sub
LHILBERT
90
Right

} {
0
Forward

 } ifelse

end } def
/LHILBERT { 
1 dict begin
/LEVEL exch def
LEVEL
0
ge
{
90
Left
LEVEL
1
sub
RHILBERT
4
Forward
90
Right
LEVEL
1
sub
LHILBERT
4
Forward
LEVEL
1
sub
LHILBERT
90
Right
4
Forward
LEVEL
1
sub
RHILBERT
90
Left

} {
0
Forward

 } ifelse

end } def
/MAIN { 
6
LHILBERT

} def
Xpos Ypos moveto
MAIN
stroke
showpage